,Date,Open,High,Low,Close*,Adj Close**,Volume
0,"Jun 03, 2019",2936.00,3000.00,2935.90,2970.20,2953.10,535064
1,"Jun 04, 2019",2970.20,2985.00,2951.00,2963.10,2946.04,211082
2,"Jun 06, 2019",2965.30,2977.95,2881.80,2901.35,2884.64,333116
3,"Jun 07, 2019",2905.00,2919.30,2860.00,2899.30,2882.61,285268
4,"Jun 10, 2019",2909.70,3005.00,2909.70,2994.30,2977.06,477974
5,"Jun 11, 2019",3005.00,3010.00,2970.00,2980.30,2963.14,282227
6,"Jun 12, 2019",2979.95,3005.00,2960.95,2996.90,2979.64,203661
7,"Jun 13, 2019",2989.30,2994.60,2952.00,2984.55,2967.36,213532
8,"Jun 14, 2019",2972.00,2986.15,2954.45,2964.10,2947.03,117529
9,"Jun 17, 2019",2964.10,2977.90,2891.10,2899.20,2882.51,234062
10,"Jun 18, 2019",2905.00,2905.00,2860.00,2867.25,2850.74,302729
11,"Jun 19, 2019",2872.00,2904.50,2850.00,2875.70,2859.14,258721
12,"Jun 20, 2019",2850.00,2870.85,2796.55,2834.05,2817.73,425859
13,"Jun 21, 2019",2835.00,2874.45,2805.00,2826.70,2810.42,363700
14,"Jun 24, 2019",2830.00,2865.00,2771.05,2780.50,2764.49,369267
15,"Jun 25, 2019",2776.00,2818.35,2753.60,2807.70,2791.53,304799
16,"Jun 26, 2019",2805.00,2813.45,2700.00,2732.90,2717.16,1387720
17,"Jun 27, 2019",2740.00,2764.60,2720.00,2725.90,2710.20,964520
18,"Jun 28, 2019",2735.00,2768.00,2732.00,2743.70,2727.90,363938
19,"Jul 01, 2019",2750.10,2771.00,2732.00,2737.55,2721.79,282998
20,"Jul 02, 2019",2741.05,2777.00,2734.30,2769.25,2753.30,242283
21,"Jul 03, 2019",2779.00,2819.00,2765.45,2794.70,2778.61,454114
22,"Jul 04, 2019",2790.00,2850.00,2789.00,2841.35,2824.99,346395
23,"Jul 05, 2019",2858.00,2862.90,2811.90,2824.85,2808.58,361520
24,"Jul 08, 2019",2829.90,2834.95,2771.05,2781.15,2765.14,302972
25,"Jul 09, 2019",2770.00,2778.40,2730.15,2762.65,2746.74,314268
26,"Jul 10, 2019",2762.00,2805.00,2742.90,2769.55,2753.60,356987
27,"Jul 11, 2019",2780.00,2790.90,2757.00,2765.15,2749.23,206136
28,"Jul 12, 2019",2763.00,2800.00,2750.75,2780.60,2764.59,186082
29,"Jul 15, 2019",2795.00,2795.00,2755.00,2773.60,2757.63,150530
30,"Jul 16, 2019",2770.00,2777.00,2737.60,2747.15,2731.33,221663
31,"Jul 17, 2019",2753.95,2809.95,2748.00,2797.80,2781.69,306989
32,"Jul 18, 2019",2800.00,2844.00,2787.55,2820.85,2804.61,477907
33,"Jul 19, 2019",2836.35,2836.65,2712.10,2749.15,2733.32,403725
34,"Jul 22, 2019",2755.00,2773.30,2718.00,2734.50,2718.75,209576
35,"Jul 23, 2019",2739.00,2749.95,2701.00,2730.20,2714.48,242451
36,"Jul 24, 2019",2729.00,2740.00,2620.05,2641.45,2626.24,525583
37,"Jul 25, 2019",2635.65,2685.00,2631.10,2671.55,2656.17,771878
38,"Jul 26, 2019",2665.00,2684.85,2616.55,2668.45,2653.08,393941
39,"Jul 29, 2019",2661.75,2689.30,2652.60,2672.30,2656.91,245049
40,"Jul 30, 2019",2675.00,2696.95,2592.50,2617.05,2601.98,354859
41,"Jul 31, 2019",2621.00,2632.00,2540.30,2605.00,2590.00,487675
42,"Aug 01, 2019",2590.00,2620.60,2575.05,2600.90,2600.90,332895
43,"Aug 02, 2019",2588.90,2625.00,2555.00,2594.40,2594.40,347129
44,"Aug 05, 2019",2585.95,2597.00,2542.85,2578.35,2578.35,211393
45,"Aug 06, 2019",2563.00,2611.75,2538.30,2550.55,2550.55,404564
46,"Aug 07, 2019",2551.00,2565.05,2530.00,2540.55,2540.55,308676
47,"Aug 08, 2019",2558.80,2590.00,2536.85,2577.60,2577.60,286738
48,"Aug 09, 2019",2590.90,2644.35,2522.30,2588.15,2588.15,1430286
49,"Aug 13, 2019",2565.00,2565.00,2491.00,2511.90,2511.90,731080
50,"Aug 14, 2019",2549.70,2549.70,2470.00,2478.90,2478.90,466208
51,"Aug 16, 2019",2500.00,2505.00,2442.00,2499.45,2499.45,734216
52,"Aug 19, 2019",2520.00,2520.00,2471.10,2478.40,2478.40,586547
53,"Aug 20, 2019",2470.00,2470.00,2371.00,2393.50,2393.50,1174827
54,"Aug 21, 2019",2389.00,2405.00,2300.00,2384.50,2384.50,1700962
55,"Aug 22, 2019",2393.50,2477.00,2393.00,2440.75,2440.75,1252406
56,"Aug 23, 2019",2425.40,2502.00,2402.20,2466.65,2466.65,629497
57,"Aug 26, 2019",2500.00,2547.80,2483.55,2533.85,2533.85,748623
58,"Aug 27, 2019",2535.35,2724.30,2530.00,2685.90,2685.90,2211174
59,"Aug 28, 2019",2700.00,2743.25,2672.05,2703.10,2703.10,1149926
60,"Aug 29, 2019",2703.20,2737.00,2651.50,2676.85,2676.85,535368
61,"Aug 30, 2019",2690.00,2726.45,2687.50,2701.65,2701.65,507782
62,"Sep 03, 2019",2699.00,2763.15,2683.10,2707.85,2707.85,716548
63,"Sep 04, 2019",2710.00,2747.55,2626.00,2635.45,2635.45,752108
64,"Sep 05, 2019",2651.00,2705.00,2640.00,2678.65,2678.65,931162
65,"Sep 06, 2019",2695.40,2721.30,2646.20,2668.00,2668.00,478048
66,"Sep 09, 2019",2669.90,2694.80,2650.20,2682.70,2682.70,298664
67,"Sep 11, 2019",2696.00,2704.00,2660.00,2666.40,2666.40,334013
68,"Sep 12, 2019",2666.40,2683.15,2647.65,2677.00,2677.00,310751
69,"Sep 13, 2019",2681.00,2682.00,2642.00,2674.60,2674.60,245991
70,"Sep 16, 2019",2660.00,2730.00,2646.10,2715.05,2715.05,428246
71,"Sep 17, 2019",2720.00,2740.95,2678.80,2692.45,2692.45,604927
72,"Sep 18, 2019",2668.70,2668.70,2588.20,2613.85,2613.85,832018
73,"Sep 19, 2019",2618.00,2653.20,2590.00,2621.80,2621.80,499689
74,"Sep 20, 2019",2633.00,2883.00,2602.55,2867.00,2867.00,1324910
75,"Sep 23, 2019",2960.00,3583.75,2951.00,3053.65,3053.65,1743589
76,"Sep 24, 2019",3100.00,3115.00,3055.00,3080.20,3080.20,809417
77,"Sep 25, 2019",3079.95,3090.30,3001.00,3036.00,3036.00,582998
78,"Sep 26, 2019",3058.00,3105.00,3050.00,3092.80,3092.80,514054
79,"Sep 27, 2019",3100.05,3109.70,3005.95,3015.10,3015.10,432428
80,"Sep 30, 2019",3010.00,3023.95,2930.10,2944.15,2944.15,553451
81,"Oct 01, 2019",2952.00,2987.40,2900.15,2919.55,2919.55,474514
82,"Oct 03, 2019",2914.80,2919.00,2850.00,2902.95,2902.95,285265
83,"Oct 04, 2019",2915.00,2931.35,2835.10,2845.15,2845.15,313495
84,"Oct 07, 2019",2857.85,2968.75,2851.45,2953.35,2953.35,969709
85,"Oct 09, 2019",2971.80,3074.65,2926.90,3058.50,3058.50,1037068
86,"Oct 10, 2019",3060.10,3061.00,3001.00,3037.75,3037.75,422209
87,"Oct 11, 2019",3048.90,3096.95,3043.30,3081.95,3081.95,510119
88,"Oct 14, 2019",3093.95,3124.00,3068.95,3109.65,3109.65,350920
89,"Oct 15, 2019",3129.10,3193.65,3112.35,3181.10,3181.10,583008
90,"Oct 16, 2019",3185.00,3185.00,3155.00,3176.75,3176.75,271629
91,"Oct 17, 2019",3176.00,3266.35,3160.00,3247.85,3247.85,673820
92,"Oct 18, 2019",3227.85,3259.20,3222.55,3252.35,3252.35,230815
93,"Oct 22, 2019",3220.10,3291.90,3220.10,3248.05,3248.05,435837
94,"Oct 23, 2019",3260.00,3344.50,3253.00,3294.70,3294.70,591914
95,"Oct 24, 2019",3312.00,3342.00,3260.25,3283.80,3283.80,401741
96,"Oct 25, 2019",3298.85,3298.85,3247.00,3267.10,3267.10,213343
97,"Oct 29, 2019",3273.00,3367.00,3259.00,3352.50,3352.50,458464
98,"Oct 30, 2019",3373.00,3399.00,3276.00,3290.10,3290.10,496662
99,"Oct 31, 2019",3298.60,3343.55,3255.00,3266.60,3266.60,488894
100,"Nov 01, 2019",3295.00,3295.00,3236.70,3268.55,3268.55,320106
101,"Nov 04, 2019",3290.00,3299.00,3227.00,3239.85,3239.85,283144
102,"Nov 05, 2019",3255.00,3280.00,3202.30,3231.75,3231.75,330794
103,"Nov 06, 2019",3239.85,3257.85,3191.00,3227.85,3227.85,347320
104,"Nov 07, 2019",3249.00,3256.60,3204.90,3223.80,3223.80,288996
105,"Nov 08, 2019",3228.00,3245.45,3143.00,3158.00,3158.00,376177
106,"Nov 11, 2019",3157.00,3195.00,3110.00,3119.55,3119.55,464906
107,"Nov 13, 2019",3271.00,3299.00,3200.00,3269.75,3269.75,1853222
108,"Nov 14, 2019",3274.90,3274.90,3200.00,3230.80,3230.80,515326
109,"Nov 15, 2019",3230.20,3260.00,3185.15,3195.55,3195.55,261217
110,"Nov 18, 2019",3203.00,3217.15,3126.00,3140.90,3140.90,429862
111,"Nov 19, 2019",3140.90,3158.35,3110.00,3120.35,3120.35,261351
112,"Nov 20, 2019",3120.00,3135.00,3060.00,3116.30,3116.30,504339
113,"Nov 21, 2019",3113.00,3113.00,3061.65,3072.65,3072.65,295648
114,"Nov 22, 2019",3062.25,3072.00,3016.15,3022.65,3022.65,349621
115,"Nov 25, 2019",3025.50,3045.00,3004.30,3040.60,3040.60,437144
116,"Nov 26, 2019",3048.00,3083.00,3041.00,3055.25,3055.25,620959
117,"Nov 27, 2019",3060.00,3100.00,3060.00,3091.10,3091.10,235618
118,"Nov 28, 2019",3110.40,3110.40,3060.00,3098.25,3098.25,234706
119,"Nov 29, 2019",3085.00,3095.00,3050.00,3057.70,3057.70,221117
120,"Dec 02, 2019",3057.70,3089.95,3051.55,3069.70,3069.70,387666
121,"Dec 03, 2019",3069.70,3116.00,3027.15,3048.30,3048.30,522267
122,"Dec 04, 2019",3039.90,3067.35,3023.55,3049.25,3049.25,263755
123,"Dec 05, 2019",3064.40,3094.65,3041.00,3082.90,3082.90,278358
124,"Dec 06, 2019",3090.05,3098.20,3059.70,3069.60,3069.60,206989
125,"Dec 09, 2019",3084.80,3084.80,3047.45,3058.40,3058.40,206624
126,"Dec 10, 2019",3066.05,3079.00,3042.10,3059.35,3059.35,185130
127,"Dec 11, 2019",3052.10,3064.00,3030.30,3041.00,3041.00,315341
128,"Dec 12, 2019",3048.60,3080.00,3030.20,3073.55,3073.55,254614
129,"Dec 13, 2019",3095.00,3096.00,3035.00,3054.40,3054.40,249099
130,"Dec 16, 2019",3059.90,3087.85,3042.75,3050.90,3050.90,369764
131,"Dec 17, 2019",3060.00,3075.50,3050.00,3071.95,3071.95,212811
132,"Dec 18, 2019",3070.00,3121.15,3053.35,3099.20,3099.20,405982
133,"Dec 19, 2019",3097.90,3123.00,3090.05,3112.75,3112.75,259875
134,"Dec 20, 2019",3095.00,3155.95,3062.45,3122.25,3122.25,766260
135,"Dec 23, 2019",3100.00,3129.70,3077.80,3091.80,3091.80,259919
136,"Dec 24, 2019",3096.00,3114.45,3084.00,3091.05,3091.05,166800
137,"Dec 26, 2019",3090.00,3118.00,3054.15,3062.30,3062.30,189043
138,"Dec 27, 2019",3079.00,3082.00,3021.00,3042.10,3042.10,407603
139,"Dec 30, 2019",3050.00,3065.00,3035.10,3047.35,3047.35,182858
140,"Dec 31, 2019",3046.00,3066.80,3020.00,3027.80,3027.80,190885
141,"Jan 01, 2020",3044.70,3053.00,3027.40,3039.65,3039.65,110558
142,"Jan 02, 2020",3047.00,3065.00,3043.05,3053.40,3053.40,138428
143,"Jan 03, 2020",3045.00,3060.00,3025.65,3038.80,3038.80,168305
144,"Jan 06, 2020",3030.00,3032.15,2995.05,3022.05,3022.05,181158
145,"Jan 07, 2020",3033.90,3054.00,3028.00,3036.60,3036.60,159307
146,"Jan 08, 2020",3020.00,3038.70,2995.00,3023.60,3023.60,194024
147,"Jan 09, 2020",3047.20,3049.00,2995.10,3001.10,3001.10,434270
148,"Jan 10, 2020",3014.95,3015.00,2978.05,2989.75,2989.75,526254
149,"Jan 13, 2020",2995.00,3056.25,2987.30,3045.10,3045.10,420792
150,"Jan 14, 2020",3058.00,3119.00,3037.15,3105.15,3105.15,653300
151,"Jan 15, 2020",3120.00,3133.95,3092.90,3114.20,3114.20,438959
152,"Jan 16, 2020",3116.00,3160.00,3115.00,3150.25,3150.25,768872
153,"Jan 17, 2020",3155.00,3169.00,3114.35,3124.45,3124.45,294014
154,"Jan 20, 2020",3143.00,3143.00,3104.40,3110.45,3110.45,203111
155,"Jan 21, 2020",3100.00,3130.00,3077.25,3111.25,3111.25,220943
156,"Jan 22, 2020",3125.50,3138.70,3088.90,3106.35,3106.35,248578
157,"Jan 23, 2020",3103.85,3122.90,3068.10,3112.95,3112.95,203032
158,"Jan 24, 2020",3113.15,3212.95,3112.05,3192.50,3192.50,580115
159,"Jan 27, 2020",3187.00,3210.00,3155.00,3174.20,3174.20,322446
160,"Jan 28, 2020",3182.90,3209.90,3136.50,3181.25,3181.25,292577
161,"Jan 29, 2020",3200.00,3245.50,3190.05,3214.20,3214.20,434882
162,"Jan 30, 2020",3208.95,3234.70,3192.45,3210.70,3210.70,337850
163,"Jan 31, 2020",3242.70,3274.60,3186.85,3200.70,3200.70,468850
