,Date,Open,High,Low,Close*,Adj Close**,Volume
0,"Jun 03, 2019",729.80,750.90,729.00,744.65,717.59,7744761
1,"Jun 04, 2019",737.25,739.45,733.15,735.30,708.58,11733503
2,"Jun 06, 2019",736.50,744.65,733.65,735.60,708.87,7563910
3,"Jun 07, 2019",735.85,743.95,735.85,739.10,712.25,3218198
4,"Jun 10, 2019",740.10,754.10,740.10,753.50,726.12,4435148
5,"Jun 11, 2019",755.00,759.00,750.50,754.90,727.47,5733127
6,"Jun 12, 2019",756.95,756.95,745.00,753.80,726.41,8738342
7,"Jun 13, 2019",740.00,747.20,740.00,742.65,725.78,4808577
8,"Jun 14, 2019",743.85,745.50,738.25,740.45,723.63,5556348
9,"Jun 17, 2019",743.00,744.50,737.80,740.55,723.72,3085588
10,"Jun 18, 2019",740.20,752.45,740.20,750.15,733.11,6202838
11,"Jun 19, 2019",752.50,755.40,748.60,751.90,734.82,4596253
12,"Jun 20, 2019",737.80,756.90,735.90,754.90,737.75,7148684
13,"Jun 21, 2019",755.00,755.00,747.15,750.20,733.16,13200318
14,"Jun 24, 2019",751.90,751.90,742.65,745.50,728.56,4758178
15,"Jun 25, 2019",744.00,750.90,737.30,748.10,731.10,3677911
16,"Jun 26, 2019",743.00,751.45,738.00,739.20,722.41,5447130
17,"Jun 27, 2019",742.00,744.70,728.15,730.55,713.95,11122346
18,"Jun 28, 2019",735.50,739.50,728.50,732.00,715.37,5919494
19,"Jul 01, 2019",735.00,737.50,729.85,731.30,714.68,3224968
20,"Jul 02, 2019",734.00,741.65,730.10,740.00,723.19,4837606
21,"Jul 03, 2019",741.00,743.20,730.00,731.30,714.68,5958379
22,"Jul 04, 2019",729.00,736.40,728.60,733.80,717.13,3274064
23,"Jul 05, 2019",735.00,736.40,713.50,718.00,701.69,4926289
24,"Jul 08, 2019",716.45,724.95,712.30,717.60,701.30,7177092
25,"Jul 09, 2019",718.00,719.85,709.05,715.50,699.24,5022638
26,"Jul 10, 2019",709.00,722.70,706.50,717.25,700.95,7573816
27,"Jul 11, 2019",719.45,723.50,709.60,721.50,705.11,6252688
28,"Jul 12, 2019",722.50,730.60,719.60,726.75,710.24,7871121
29,"Jul 15, 2019",763.00,781.65,754.20,779.35,761.64,31064152
30,"Jul 16, 2019",777.00,787.80,776.00,784.85,767.02,9924322
31,"Jul 17, 2019",783.90,795.00,776.75,794.15,776.11,6754348
32,"Jul 18, 2019",789.05,798.50,786.20,792.70,774.69,6534471
33,"Jul 19, 2019",788.70,794.50,781.25,785.40,767.56,6812749
34,"Jul 22, 2019",785.95,792.00,782.05,784.40,766.58,7107151
35,"Jul 23, 2019",787.00,804.00,785.55,790.05,772.10,10782564
36,"Jul 24, 2019",788.00,793.75,783.60,786.30,768.44,5745146
37,"Jul 25, 2019",788.25,800.20,787.65,794.50,776.45,9773568
38,"Jul 26, 2019",792.30,795.00,782.20,787.00,769.12,4936581
39,"Jul 29, 2019",789.50,796.95,786.20,791.45,773.47,6244316
40,"Jul 30, 2019",791.90,797.80,788.55,792.70,774.69,8673253
41,"Jul 31, 2019",790.85,799.80,781.60,793.65,775.62,7350584
42,"Aug 01, 2019",786.45,788.40,764.40,768.85,751.38,10066407
43,"Aug 02, 2019",765.05,779.90,762.25,775.60,757.98,10838336
44,"Aug 05, 2019",772.60,785.90,768.65,776.70,759.05,9976238
45,"Aug 06, 2019",778.80,783.70,769.80,774.45,756.85,9331718
46,"Aug 07, 2019",778.90,783.45,772.35,776.10,758.47,5130457
47,"Aug 08, 2019",782.70,792.75,781.25,788.75,770.83,8009009
48,"Aug 09, 2019",792.00,796.75,784.80,789.85,771.90,4362520
49,"Aug 13, 2019",784.15,786.00,760.15,764.75,747.37,7517099
50,"Aug 14, 2019",775.10,778.25,768.00,774.80,757.20,5940968
51,"Aug 16, 2019",780.00,780.05,762.50,774.55,756.95,5128038
52,"Aug 19, 2019",775.60,783.00,773.35,777.65,759.98,3881451
53,"Aug 20, 2019",785.20,798.00,783.85,792.75,774.74,8435344
54,"Aug 21, 2019",793.00,803.75,793.00,799.45,781.29,5926896
55,"Aug 22, 2019",799.90,801.30,792.35,795.70,777.62,5222488
56,"Aug 23, 2019",796.45,809.95,795.80,802.20,783.97,6894903
57,"Aug 26, 2019",795.90,806.80,786.90,802.55,784.32,5412074
58,"Aug 27, 2019",791.00,794.95,781.10,784.65,766.82,16061642
59,"Aug 28, 2019",787.40,805.00,786.30,802.50,784.27,5881134
60,"Aug 29, 2019",795.50,809.70,795.50,806.95,788.62,7830413
61,"Aug 30, 2019",810.00,817.35,802.00,814.90,796.39,8174111
62,"Sep 03, 2019",815.00,822.40,812.05,814.25,795.75,5647088
63,"Sep 04, 2019",810.75,822.45,810.25,821.30,802.64,6199015
64,"Sep 05, 2019",830.10,837.50,826.65,834.05,815.10,7926895
65,"Sep 06, 2019",843.30,847.00,835.05,840.15,821.06,6106839
66,"Sep 09, 2019",836.80,840.30,827.55,829.10,810.26,4377870
67,"Sep 11, 2019",822.30,828.55,814.15,820.10,801.47,7981036
68,"Sep 12, 2019",816.40,819.85,810.85,816.40,797.85,4400017
69,"Sep 13, 2019",818.10,831.05,817.50,829.30,810.46,4831971
70,"Sep 16, 2019",832.05,837.95,820.55,827.70,808.89,4846496
71,"Sep 17, 2019",831.50,835.00,820.55,831.25,812.36,5540901
72,"Sep 18, 2019",829.90,832.95,824.00,829.85,811.00,3199389
73,"Sep 19, 2019",824.85,827.00,815.20,820.70,802.05,6601607
74,"Sep 20, 2019",822.90,835.00,802.00,805.00,786.71,22462336
75,"Sep 23, 2019",806.90,806.90,741.90,764.35,746.98,17279260
76,"Sep 24, 2019",765.00,798.65,765.00,794.05,776.01,13717998
77,"Sep 25, 2019",787.70,801.00,781.65,792.65,774.64,9313576
78,"Sep 26, 2019",787.75,797.00,778.10,782.55,764.77,18442824
79,"Sep 27, 2019",787.05,794.25,780.10,782.20,764.43,5087422
80,"Sep 30, 2019",785.10,808.00,784.15,805.65,787.35,8178091
81,"Oct 01, 2019",807.00,807.55,791.55,793.55,775.52,5881438
82,"Oct 03, 2019",792.55,797.85,784.15,785.60,767.75,5497672
83,"Oct 04, 2019",790.00,797.60,787.05,793.45,775.42,8201687
84,"Oct 07, 2019",794.85,802.00,786.10,789.55,771.61,3679845
85,"Oct 09, 2019",795.45,795.90,778.80,783.65,765.85,6335025
86,"Oct 10, 2019",785.40,794.70,776.60,783.05,765.26,10402917
87,"Oct 11, 2019",781.50,823.80,776.60,814.80,796.29,20624617
88,"Oct 14, 2019",786.75,797.00,780.00,786.10,768.24,15150858
89,"Oct 15, 2019",773.10,775.95,765.00,768.30,750.84,13762133
90,"Oct 16, 2019",765.25,775.95,761.55,771.45,753.92,10767032
91,"Oct 17, 2019",767.00,770.55,765.10,769.50,752.02,9860495
92,"Oct 18, 2019",763.80,773.80,760.00,767.85,750.40,10037063
93,"Oct 22, 2019",691.10,691.10,638.35,643.55,635.55,90152532
94,"Oct 23, 2019",630.00,656.65,615.10,650.60,650.60,60516887
95,"Oct 24, 2019",650.00,653.20,632.00,635.35,635.35,25666433
96,"Oct 25, 2019",647.00,652.50,636.00,637.45,637.45,16548862
97,"Oct 29, 2019",651.00,653.75,647.00,650.65,650.65,16709764
98,"Oct 30, 2019",660.40,671.40,656.20,660.60,660.60,22879467
99,"Oct 31, 2019",668.40,695.45,666.10,685.60,685.60,27405901
100,"Nov 01, 2019",690.00,694.00,682.60,687.90,687.90,9713371
101,"Nov 04, 2019",681.80,732.50,678.15,709.00,709.00,29381982
102,"Nov 05, 2019",708.75,708.75,691.50,696.10,696.10,12897805
103,"Nov 06, 2019",695.80,721.50,692.00,712.30,712.30,21372589
104,"Nov 07, 2019",717.00,724.35,712.10,720.10,720.10,13733737
105,"Nov 08, 2019",722.00,724.25,705.50,708.15,708.15,8585117
106,"Nov 11, 2019",698.90,707.20,698.00,704.40,704.40,6951494
107,"Nov 13, 2019",696.50,700.00,687.75,691.35,691.35,9973690
108,"Nov 14, 2019",696.35,709.80,696.35,705.30,705.30,10539902
109,"Nov 15, 2019",709.05,712.95,702.30,703.90,703.90,7362312
110,"Nov 18, 2019",705.00,710.00,699.30,705.20,705.20,7490916
111,"Nov 19, 2019",709.90,714.00,705.00,712.85,712.85,6495885
112,"Nov 20, 2019",712.80,715.00,705.00,713.00,713.00,6142171
113,"Nov 21, 2019",715.50,721.45,710.50,713.25,713.25,9692973
114,"Nov 22, 2019",711.75,712.00,685.10,693.20,693.20,14415556
115,"Nov 25, 2019",693.35,705.15,693.20,698.10,698.10,7334511
116,"Nov 26, 2019",705.00,707.25,686.00,690.60,690.60,27253106
117,"Nov 27, 2019",694.25,697.65,690.10,695.75,695.75,3861635
118,"Nov 28, 2019",699.10,703.35,694.05,701.85,701.85,4837683
119,"Nov 29, 2019",700.90,702.30,691.55,696.35,696.35,4262349
120,"Dec 02, 2019",703.10,704.00,690.30,692.70,692.70,9383736
121,"Dec 03, 2019",692.70,699.70,688.55,698.35,698.35,5239013
122,"Dec 04, 2019",697.00,710.50,693.35,708.85,708.85,7427886
123,"Dec 05, 2019",706.45,715.90,703.80,714.85,714.85,4814422
124,"Dec 06, 2019",715.95,720.00,709.60,715.10,715.10,5226096
125,"Dec 09, 2019",716.00,722.35,714.25,717.25,717.25,6435865
126,"Dec 10, 2019",713.00,718.50,710.00,714.55,714.55,4457939
127,"Dec 11, 2019",716.60,722.70,713.00,721.05,721.05,6043554
128,"Dec 12, 2019",718.50,720.70,699.55,702.10,702.10,11112042
129,"Dec 13, 2019",700.35,712.90,700.35,711.30,711.30,10302409
130,"Dec 16, 2019",712.30,720.20,710.20,714.00,714.00,5616324
131,"Dec 17, 2019",719.70,731.25,715.00,729.70,729.70,10525565
132,"Dec 18, 2019",731.00,737.30,722.75,732.45,732.45,12215295
133,"Dec 19, 2019",733.50,735.95,724.60,730.85,730.85,7199092
134,"Dec 20, 2019",731.00,735.00,728.25,731.55,731.55,7793165
135,"Dec 23, 2019",732.15,737.30,731.65,736.00,736.00,4975608
136,"Dec 24, 2019",736.95,736.95,728.30,733.40,733.40,2890759
137,"Dec 26, 2019",732.00,734.55,726.55,728.95,728.95,3821806
138,"Dec 27, 2019",729.75,737.50,728.85,736.95,736.95,3399063
139,"Dec 30, 2019",736.10,737.95,727.25,732.90,732.90,5368416
140,"Dec 31, 2019",729.70,737.75,725.45,731.15,731.15,6927885
141,"Jan 01, 2020",735.00,740.00,732.55,736.85,736.85,2112405
142,"Jan 02, 2020",738.90,740.80,730.90,734.70,734.70,5658200
143,"Jan 03, 2020",733.90,748.00,733.90,746.00,746.00,7882839
144,"Jan 06, 2020",746.10,753.80,736.50,738.85,738.85,6519403
145,"Jan 07, 2020",738.00,742.60,725.10,727.90,727.90,7899363
146,"Jan 08, 2020",724.95,729.00,708.30,718.20,718.20,8639443
147,"Jan 09, 2020",721.70,731.50,714.30,727.55,727.55,13521186
148,"Jan 10, 2020",740.45,742.90,730.50,738.15,738.15,9341280
149,"Jan 13, 2020",760.00,777.50,755.00,773.55,773.55,36952038
150,"Jan 14, 2020",769.95,776.95,767.20,775.65,775.65,11414418
151,"Jan 15, 2020",773.85,773.85,762.15,767.55,767.55,6047430
152,"Jan 16, 2020",770.70,772.50,760.25,767.00,767.00,5740586
153,"Jan 17, 2020",770.70,772.90,762.25,767.85,767.85,3762925
154,"Jan 20, 2020",771.60,774.40,762.95,768.45,768.45,3887680
155,"Jan 21, 2020",768.45,770.50,760.75,762.50,762.50,4448374
156,"Jan 22, 2020",768.45,778.00,766.00,770.20,770.20,9733935
157,"Jan 23, 2020",777.10,785.50,776.70,784.35,784.35,12527687
158,"Jan 24, 2020",775.75,786.50,773.60,782.75,782.75,7540474
159,"Jan 27, 2020",779.05,784.80,774.40,778.10,778.10,3741610
160,"Jan 28, 2020",781.00,781.80,772.00,778.00,778.00,5121009
161,"Jan 29, 2020",786.60,792.80,784.25,789.70,789.70,6832755
162,"Jan 30, 2020",789.70,789.70,778.00,780.70,780.70,3859558
163,"Jan 31, 2020",780.55,784.95,771.60,775.95,775.95,6091828
