,Date,Open,High,Low,Close*,Adj Close**,Volume
0,"Jun 03, 2019",63.90,63.90,62.40,63.35,62.29,133541
1,"Jun 04, 2019",63.15,64.65,62.70,63.55,62.49,243145
2,"Jun 06, 2019",64.40,65.30,63.10,64.05,62.98,254106
3,"Jun 07, 2019",65.30,65.55,64.15,64.95,63.87,198030
4,"Jun 10, 2019",65.50,65.80,63.95,64.55,63.47,142930
5,"Jun 11, 2019",64.85,64.85,63.45,63.90,62.84,180860
6,"Jun 12, 2019",63.90,64.30,63.40,63.65,62.59,123515
7,"Jun 13, 2019",63.75,63.75,61.65,62.45,61.41,285816
8,"Jun 14, 2019",62.50,62.50,61.00,61.35,60.33,77435
9,"Jun 17, 2019",61.55,61.55,59.30,59.55,58.56,99567
10,"Jun 18, 2019",59.60,59.60,57.75,58.20,57.23,171127
11,"Jun 19, 2019",58.45,58.75,56.15,56.85,55.90,129039
12,"Jun 20, 2019",56.85,58.20,55.80,57.85,56.89,184240
13,"Jun 21, 2019",57.45,59.20,57.25,58.75,57.77,127419
14,"Jun 24, 2019",58.95,60.90,58.60,59.95,58.95,145625
15,"Jun 25, 2019",59.85,60.60,59.55,59.75,58.75,68866
16,"Jun 26, 2019",59.85,60.70,59.65,60.00,59.00,90791
17,"Jun 27, 2019",60.15,61.70,59.90,60.75,59.74,94412
18,"Jun 28, 2019",60.70,61.15,60.05,60.55,59.54,70446
19,"Jul 01, 2019",61.50,63.45,61.50,62.40,61.36,245488
20,"Jul 02, 2019",63.00,63.70,62.10,62.85,61.80,156974
21,"Jul 03, 2019",63.40,65.75,63.35,64.35,63.28,321461
22,"Jul 04, 2019",64.40,64.70,63.40,63.60,62.54,97288
23,"Jul 05, 2019",63.90,64.70,60.00,60.35,59.34,433741
24,"Jul 08, 2019",60.00,60.00,56.50,56.80,55.85,160768
25,"Jul 09, 2019",56.80,57.50,55.80,56.85,55.90,144606
26,"Jul 10, 2019",56.85,57.90,56.00,56.30,55.36,115798
27,"Jul 11, 2019",57.05,57.05,56.40,56.70,55.76,84014
28,"Jul 12, 2019",57.05,57.25,56.15,56.35,55.41,53562
29,"Jul 15, 2019",56.20,56.45,54.60,54.90,53.99,107485
30,"Jul 16, 2019",54.95,55.35,54.25,55.05,54.13,61260
31,"Jul 17, 2019",55.20,58.20,55.20,56.80,55.85,304232
32,"Jul 18, 2019",56.85,56.85,55.55,55.95,55.02,50741
33,"Jul 19, 2019",56.35,56.50,54.05,54.45,53.54,105329
34,"Jul 22, 2019",54.05,54.05,53.15,53.60,52.71,69758
35,"Jul 23, 2019",53.70,54.15,53.05,53.70,52.81,56569
36,"Jul 24, 2019",53.75,54.30,52.50,52.60,51.72,77491
37,"Jul 25, 2019",53.25,54.60,53.00,53.25,52.36,133488
38,"Jul 26, 2019",53.10,53.45,52.55,52.75,51.87,80276
39,"Jul 29, 2019",53.20,53.20,51.50,51.95,51.08,82998
40,"Jul 30, 2019",52.00,52.10,48.00,48.25,47.45,267358
41,"Jul 31, 2019",48.00,49.85,46.75,49.45,48.63,226995
42,"Aug 01, 2019",49.00,49.60,47.25,48.10,47.30,90021
43,"Aug 02, 2019",48.10,48.10,46.50,47.30,46.51,110665
44,"Aug 05, 2019",46.30,46.35,45.00,45.20,44.45,80723
45,"Aug 06, 2019",44.30,46.65,44.10,46.25,45.48,86802
46,"Aug 07, 2019",46.50,46.70,45.25,45.60,44.84,58743
47,"Aug 08, 2019",45.95,46.50,44.70,46.25,45.48,97889
48,"Aug 09, 2019",45.00,45.90,45.00,45.45,44.69,109914
49,"Aug 13, 2019",45.90,45.90,44.50,44.65,43.91,83799
50,"Aug 14, 2019",44.75,44.80,44.00,44.15,43.41,66907
51,"Aug 16, 2019",44.00,45.35,43.30,44.45,43.71,118755
52,"Aug 19, 2019",44.55,44.95,44.15,44.40,43.66,128445
53,"Aug 20, 2019",44.25,44.90,43.90,44.00,43.27,59504
54,"Aug 21, 2019",44.00,44.00,40.55,40.80,40.12,139877
55,"Aug 22, 2019",40.35,40.65,38.00,38.20,37.56,152368
56,"Aug 23, 2019",38.10,39.70,36.25,39.30,38.65,178259
57,"Aug 26, 2019",40.80,40.80,38.55,39.75,39.09,154411
58,"Aug 27, 2019",39.60,41.90,39.60,41.70,41.01,157919
59,"Aug 28, 2019",41.40,42.40,40.10,40.60,39.92,98132
60,"Aug 29, 2019",41.65,42.45,40.50,40.65,39.97,171832
61,"Aug 30, 2019",40.00,41.65,40.00,41.00,40.32,158759
62,"Sep 03, 2019",40.20,40.65,39.60,39.85,39.19,81377
63,"Sep 04, 2019",39.60,40.85,39.40,40.55,39.87,79450
64,"Sep 05, 2019",40.95,41.75,40.60,41.05,40.37,87947
65,"Sep 06, 2019",41.10,41.95,41.10,41.65,40.96,162433
66,"Sep 09, 2019",41.25,42.75,41.25,42.20,41.50,73585
67,"Sep 11, 2019",42.50,45.30,42.50,44.50,43.76,281861
68,"Sep 12, 2019",44.25,45.30,44.15,44.30,43.56,103772
69,"Sep 13, 2019",44.45,46.65,43.30,46.20,45.43,237931
70,"Sep 16, 2019",45.40,47.40,44.90,46.70,46.70,197390
71,"Sep 17, 2019",46.60,46.65,43.90,44.20,44.20,118314
72,"Sep 18, 2019",44.30,44.65,43.70,43.90,43.90,60921
73,"Sep 19, 2019",43.90,44.05,42.70,43.60,43.60,137833
74,"Sep 20, 2019",43.15,45.80,43.00,43.80,43.80,223103
75,"Sep 23, 2019",46.20,47.40,45.70,46.95,46.95,360997
76,"Sep 24, 2019",47.35,49.75,46.00,49.15,49.15,324728
77,"Sep 25, 2019",49.95,51.75,49.80,50.30,50.30,564417
78,"Sep 26, 2019",50.30,52.55,49.10,51.85,51.85,537238
79,"Sep 27, 2019",51.80,52.20,49.80,50.25,50.25,154483
80,"Sep 30, 2019",50.45,50.45,47.55,48.15,48.15,167412
81,"Oct 01, 2019",50.55,50.70,47.50,48.60,48.60,260377
82,"Oct 03, 2019",47.75,47.90,46.60,47.05,47.05,169688
83,"Oct 04, 2019",47.75,47.90,46.30,46.45,46.45,93722
84,"Oct 07, 2019",46.50,46.50,44.10,44.25,44.25,122824
85,"Oct 09, 2019",44.25,45.70,43.50,44.95,44.95,116221
86,"Oct 10, 2019",44.75,45.55,44.20,44.40,44.40,99438
87,"Oct 11, 2019",44.30,46.00,44.10,45.05,45.05,99933
88,"Oct 14, 2019",45.20,47.50,44.80,47.15,47.15,143883
89,"Oct 15, 2019",46.70,49.20,46.65,48.90,48.90,317330
90,"Oct 16, 2019",49.20,49.20,46.85,47.45,47.45,162082
91,"Oct 17, 2019",47.75,48.35,47.40,48.00,48.00,171977
92,"Oct 18, 2019",48.20,51.40,48.20,50.90,50.90,259468
93,"Oct 22, 2019",51.40,53.20,51.35,51.70,51.70,195115
94,"Oct 23, 2019",51.70,53.30,51.35,52.35,52.35,150456
95,"Oct 24, 2019",52.50,55.25,50.55,54.60,54.60,394788
96,"Oct 25, 2019",54.80,54.80,52.15,52.35,52.35,136778
97,"Oct 29, 2019",53.00,53.50,51.50,52.70,52.70,74049
98,"Oct 30, 2019",58.65,60.00,56.60,56.80,56.80,462351
99,"Oct 31, 2019",56.95,57.80,55.30,55.75,55.75,213114
100,"Nov 01, 2019",55.75,56.75,54.00,54.45,54.45,173379
101,"Nov 04, 2019",54.30,55.00,53.80,54.10,54.10,136771
102,"Nov 05, 2019",54.05,54.30,52.50,52.60,52.60,122926
103,"Nov 06, 2019",52.60,53.85,52.10,53.20,53.20,167961
104,"Nov 07, 2019",53.50,53.75,52.60,53.15,53.15,136110
105,"Nov 08, 2019",52.75,54.90,50.60,51.80,51.80,295896
106,"Nov 11, 2019",51.45,52.30,51.05,51.95,51.95,110579
107,"Nov 13, 2019",51.75,52.35,50.60,51.05,51.05,129427
108,"Nov 14, 2019",50.20,50.20,48.40,49.00,49.00,194846
109,"Nov 15, 2019",48.85,49.00,47.90,48.05,48.05,154332
110,"Nov 18, 2019",48.40,49.90,48.35,49.65,49.65,76255
111,"Nov 19, 2019",49.90,50.40,48.85,49.30,49.30,72169
112,"Nov 20, 2019",49.70,51.25,49.15,50.55,50.55,147303
113,"Nov 21, 2019",50.55,50.55,48.90,49.05,49.05,102141
114,"Nov 22, 2019",49.75,50.05,49.05,49.55,49.55,96863
115,"Nov 25, 2019",49.80,49.85,49.05,49.55,49.55,125697
116,"Nov 26, 2019",49.60,50.30,49.00,49.15,49.15,85916
117,"Nov 27, 2019",49.05,49.40,48.20,48.50,48.50,120823
118,"Nov 28, 2019",48.60,49.25,48.15,49.00,49.00,85764
119,"Nov 29, 2019",50.30,50.70,49.40,49.85,49.85,177767
120,"Dec 02, 2019",49.15,49.60,47.70,47.85,47.85,139117
121,"Dec 03, 2019",48.00,48.40,47.00,47.25,47.25,66602
122,"Dec 04, 2019",47.05,48.20,47.00,47.55,47.55,92410
123,"Dec 05, 2019",48.50,48.50,47.30,47.40,47.40,47855
124,"Dec 06, 2019",47.55,47.60,45.60,46.25,46.25,83295
125,"Dec 09, 2019",46.90,46.90,45.55,45.65,45.65,95977
126,"Dec 10, 2019",46.30,46.60,45.30,45.75,45.75,64315
127,"Dec 11, 2019",45.90,46.25,44.05,44.60,44.60,86791
128,"Dec 12, 2019",44.75,45.30,44.45,45.00,45.00,121938
129,"Dec 13, 2019",45.30,46.10,45.05,45.85,45.85,153920
130,"Dec 16, 2019",46.00,46.15,45.15,45.25,45.25,140659
131,"Dec 17, 2019",45.65,46.15,45.40,45.90,45.90,152961
132,"Dec 18, 2019",46.00,46.00,45.15,45.50,45.50,137725
133,"Dec 19, 2019",45.10,45.55,45.05,45.30,45.30,74836
134,"Dec 20, 2019",46.00,46.00,44.90,45.00,45.00,72910
135,"Dec 23, 2019",44.85,45.30,44.85,45.10,45.10,48314
136,"Dec 24, 2019",44.70,45.15,44.20,44.30,44.30,88182
137,"Dec 26, 2019",44.35,47.00,43.85,46.20,46.20,232959
138,"Dec 27, 2019",46.50,46.50,45.75,46.10,46.10,113323
139,"Dec 30, 2019",46.15,47.40,45.50,47.15,47.15,197573
140,"Dec 31, 2019",47.30,47.30,46.35,46.60,46.60,134114
141,"Jan 01, 2020",46.65,47.00,46.25,46.40,46.40,81187
142,"Jan 02, 2020",46.65,49.40,46.55,49.20,49.20,243331
143,"Jan 03, 2020",49.00,50.25,48.15,49.15,49.15,329564
144,"Jan 06, 2020",49.85,52.00,48.80,49.35,49.35,494877
145,"Jan 07, 2020",50.00,51.05,49.10,50.35,50.35,247536
146,"Jan 08, 2020",49.65,50.30,48.85,49.25,49.25,210337
147,"Jan 09, 2020",50.60,53.50,50.05,51.95,51.95,498824
148,"Jan 10, 2020",52.30,52.70,50.65,51.05,51.05,143866
149,"Jan 13, 2020",51.50,53.35,51.15,52.95,52.95,243909
150,"Jan 14, 2020",53.50,54.00,52.75,52.90,52.90,211312
151,"Jan 15, 2020",52.75,59.80,52.40,55.45,55.45,817614
152,"Jan 16, 2020",55.45,55.65,54.30,54.50,54.50,267652
153,"Jan 17, 2020",54.65,55.25,53.75,53.90,53.90,170882
154,"Jan 20, 2020",54.50,54.50,52.50,52.65,52.65,154813
155,"Jan 21, 2020",52.15,53.95,52.10,52.60,52.60,171185
156,"Jan 22, 2020",52.60,54.20,52.60,53.50,53.50,318210
157,"Jan 23, 2020",53.45,55.65,53.05,54.95,54.95,221500
158,"Jan 24, 2020",54.00,56.50,53.55,56.25,56.25,394916
159,"Jan 27, 2020",58.00,59.20,57.25,57.55,57.55,685542
160,"Jan 28, 2020",57.75,58.00,55.70,56.05,56.05,143957
161,"Jan 29, 2020",56.95,57.50,56.05,56.25,56.25,96067
162,"Jan 30, 2020",56.00,56.05,54.95,55.20,55.20,92058
163,"Jan 31, 2020",55.25,55.40,53.65,53.90,53.90,160130
